#dados fit:
#para z>0:
#lambda=6.09673723398 +- 0.0943186971935
#para z<0:
#lambda=4.74098544863 +- 0.0528477163587


0 1475
1 1475
1 1567
2 1567
2 1566
3 1566
3 1553
4 1553
4 1536
5 1536
5 1533
6 1533
6 1525
7 1525
7 1523
8 1523
8 1520
9 1520
9 1514
10 1514
10 1527
11 1527
11 1514
12 1514
12 1506
13 1506
13 1502
14 1502
14 1500
15 1500
15 1485
16 1485
16 1493
17 1493
17 1491
18 1491
18 1486
19 1486
19 1483
20 1483
21 1483
21 1480
22 1480
22 1478
23 1478
23 1476
24 1476
24 1473
25 1473
25 1469
26 1469
26 1459
27 1459
27 1461
28 1461
28 1463
29 1463
29 1459
30 1459
30 1461
31 1461
31 1457
32 1457
32 1456
33 1456
33 1454
34 1454
34 1447
35 1447
35 1450
36 1450
36 1443
37 1443
37 1468
38 1468
38 1444
39 1444
40 1444
40 1421
41 1421
41 1446
42 1446
42 1437
43 1437
43 1440
44 1440
44 1436
45 1436
45 1434
46 1434
47 1434
47 1432
48 1432
48 1431
49 1431
50 1431
50 1428
51 1428
51 1418
52 1418
52 1431
53 1431
53 1424
54 1424
54 1433
55 1433
55 1422
56 1422
56 1425
57 1425
57 1422
58 1422
58 1424
59 1424
59 1409
60 1409
60 1420
61 1420
61 1423
62 1423
62 1481
63 1481
63 1418
64 1418
64 1428
65 1428
65 1402
66 1402
66 1421
67 1421
67 1419
68 1419
68 1421
69 1421
69 1418
70 1418
70 1420
71 1420
71 1425
72 1425
72 1418
73 1418
73 1419
74 1419
74 1420
75 1420
75 1419
76 1419
76 1431
77 1431
77 1432
78 1432
78 1428
79 1428
79 1423
80 1423
80 1424
81 1424
81 1423
82 1423
82 1416
83 1416
83 1417
84 1417
84 1421
85 1421
85 1417
86 1417
86 1416
87 1416
87 1482
88 1482
88 1422
89 1422
89 1424
90 1424
90 1425
91 1425
91 1421
92 1421
92 1420
93 1420
93 1426
94 1426
94 1440
95 1440
95 1419
96 1419
96 1424
97 1424
97 1422
98 1422
98 1423
99 1423
99 1427
100 1427
100 1421
101 1421
102 1421
102 1423
103 1423
103 1431
104 1431
104 1432
105 1432
105 1430
106 1430
106 1491
107 1491
107 1437
108 1437
108 1431
109 1431
109 1434
110 1434
110 1432
111 1432
111 1428
112 1428
113 1428
113 1430
114 1430
114 1439
115 1439
115 1434
116 1434
116 1428
117 1428
117 1434
118 1434
118 1436
119 1436
119 1433
120 1433
120 1425
121 1425
121 1418
122 1418
122 1425
123 1425
123 1481
124 1481
124 1430
125 1430
125 1428
126 1428
126 1420
127 1420
127 1429
128 1429
129 1429
129 1449
130 1449
130 1428
131 1428
131 1426
132 1426
132 1438
133 1438
133 1428
134 1428
134 1437
135 1437
135 1440
136 1440
136 1449
137 1449
137 1436
138 1436
138 1444
139 1444
139 1443
140 1443
140 1445
141 1445
141 1438
142 1438
142 1437
143 1437
144 1437
144 1422
145 1422
145 1449
146 1449
146 1439
147 1439
147 1452
148 1452
148 1432
149 1432
149 1444
150 1444
150 1439
151 1439
151 1440
152 1440
152 1442
153 1442
154 1442
155 1442
155 1444
156 1444
156 1447
157 1447
157 1449
158 1449
159 1449
159 1460
160 1460
160 1456
161 1456
162 1456
162 1463
163 1463
163 1465
164 1465
164 1457
165 1457
165 1443
166 1443
166 1478
167 1478
167 1468
168 1468
168 1465
169 1465
169 1456
170 1456
170 1459
171 1459
171 1457
172 1457
172 1460
173 1460
173 1452
174 1452
174 1450
175 1450
175 1460
176 1460
176 1459
177 1459
177 1463
178 1463
178 1462
179 1462
179 1472
180 1472
180 1476
181 1476
181 1470
182 1470
182 1465
183 1465
183 1470
184 1470
184 1467
185 1467
185 1484
186 1484
186 1485
187 1485
187 1483
188 1483
188 1473
189 1473
189 1474
190 1474
190 1448
191 1448
191 1473
192 1473
192 1480
193 1480
193 1478
194 1478
194 1479
195 1479
195 1476
196 1476
196 1486
197 1486
197 1480
198 1480
199 1480
199 1481
200 1481
200 1485
201 1485
201 1490
202 1490
202 1488
203 1488
204 1488
204 1486
205 1486
205 1489
206 1489
206 1488
207 1488
207 1490
208 1490
208 1504
209 1504
209 1494
210 1494
210 1491
211 1491
211 1497
212 1497
212 1489
213 1489
213 1495
214 1495
214 1499
215 1499
215 1495
216 1495
216 1508
217 1508
217 1506
218 1506
218 1505
219 1505
219 1501
220 1501
220 1505
221 1505
221 1508
222 1508
222 1504
223 1504
223 1506
224 1506
224 1512
225 1512
225 1506
226 1506
226 1516
227 1516
228 1516
228 1512
229 1512
230 1512
230 1515
231 1515
231 1510
232 1510
232 1512
233 1512
233 1516
234 1516
234 1513
235 1513
235 1519
236 1519
237 1519
237 1520
238 1520
238 1522
239 1522
240 1522
240 1520
241 1520
241 1523
242 1523
243 1523
243 1528
244 1528
244 1529
245 1529
245 1528
246 1528
247 1528
247 1531
248 1531
248 1532
249 1532
250 1532
250 1536
251 1536
251 1537
252 1537
252 1530
253 1530
253 1535
254 1535
254 1540
255 1540
255 1538
256 1538
256 1530
257 1530
257 1538
258 1538
258 1541
259 1541
259 1540
260 1540
261 1540
261 1541
262 1541
262 1545
263 1545
263 1540
264 1540
264 1544
265 1544
265 1549
266 1549
266 1521
267 1521
267 1552
268 1552
268 1550
269 1550
269 1548
270 1548
270 1552
271 1552
271 1555
272 1555
272 1557
273 1557
273 1555
274 1555
274 1557
275 1557
275 1558
276 1558
276 1559
277 1559
277 1560
278 1560
278 1561
279 1561
280 1561
280 1565
281 1565
281 1569
282 1569
283 1569
283 1568
284 1568
284 1567
285 1567
285 1574
286 1574
286 1563
287 1563
287 1578
288 1578
288 1571
289 1571
289 1617
290 1617
290 1577
291 1577
291 1576
292 1576
292 1575
293 1575
293 1573
294 1573
294 1577
295 1577
295 1579
296 1579
296 1584
297 1584
297 1573
298 1573
298 1581
299 1581
299 1582
300 1582
300 1584
301 1584
301 1587
302 1587
302 1590
303 1590
303 1589
304 1589
304 1592
305 1592
305 1594
306 1594
306 1591
307 1591
307 1590
308 1590
308 1596
309 1596
309 1594
310 1594
310 1596
311 1596
311 1595
312 1595
312 1600
313 1600
313 1603
314 1603
314 1597
315 1597
315 1596
316 1596
316 1598
317 1598
317 1603
318 1603
318 1604
319 1604
319 1609
320 1609
320 1611
321 1611
321 1608
322 1608
322 1610
323 1610
323 1603
324 1603
324 1608
325 1608
325 1611
326 1611
326 1612
327 1612
327 1615
328 1615
328 1605
329 1605
329 1617
330 1617
330 1616
331 1616
331 1618
332 1618
332 1623
333 1623
333 1625
334 1625
334 1623
335 1623
335 1622
336 1622
336 1627
337 1627
337 1669
338 1669
338 1631
339 1631
339 1645
340 1645
340 1636
341 1636
341 1638
342 1638
342 1634
343 1634
343 1643
344 1643
344 1646
345 1646
346 1646
346 1648
347 1648
347 1650
348 1650
348 1657
349 1657
350 1657
350 1659
351 1659
351 1660
352 1660
352 1667
353 1667
353 1659
354 1659
354 1673
355 1673
355 1678
356 1678
356 1679
357 1679
357 1685
358 1685
358 1693
359 1693
359 1695
360 1695
361 1695
361 1700
362 1700
362 1704
363 1704
363 1711
364 1711
364 1715
365 1715
365 1720
366 1720
366 1730
367 1730
368 1730
368 1725
369 1725
369 1738
370 1738
370 1744
371 1744
371 1746
372 1746
372 1760
373 1760
373 1762
374 1762
374 1770
375 1770
375 1773
376 1773
376 1782
377 1782
377 1788
378 1788
378 1797
379 1797
379 1801
380 1801
380 1804
381 1804
381 1818
382 1818
382 1824
383 1824
383 1829
384 1829
384 1835
385 1835
385 1849
386 1849
386 1858
387 1858
387 1864
388 1864
388 1868
389 1868
389 1876
390 1876
390 1885
391 1885
391 1890
392 1890
392 1900
393 1900
393 1904
394 1904
394 1917
395 1917
395 1923
396 1923
396 1931
397 1931
397 1936
398 1936
398 1923
399 1923
399 1951
400 1951
400 1952
401 1952
401 1968
402 1968
402 1972
403 1972
403 1982
404 1982
404 1985
405 1985
405 1945
406 1945
406 2002
407 2002
408 2002
408 2012
409 2012
409 2018
410 2018
410 2030
411 2030
411 2031
412 2031
412 2052
413 2052
413 2084
414 2084
414 2112
415 2112
415 2073
416 2073
417 2073
417 2072
418 2072
418 2065
419 2065
419 2071
420 2071
420 2070
421 2070
421 2072
422 2072
422 2075
423 2075
423 2071
424 2071
424 2069
425 2069
425 2079
426 2079
426 2073
427 2073
427 2085
428 2085
428 2088
429 2088
429 2085
430 2085
430 2083
431 2083
431 2098
432 2098
432 2105
433 2105
433 2099
434 2099
434 2113
435 2113
435 2120
436 2120
436 2113
437 2113
437 2127
438 2127
439 2127
439 2129
440 2129
440 2135
441 2135
441 2138
442 2138
442 2148
443 2148
443 2160
444 2160
444 2161
445 2161
445 2154
446 2154
446 2165
447 2165
447 2167
448 2167
448 2170
449 2170
449 2180
450 2180
450 2179
451 2179
451 2182
452 2182
453 2182
453 2185
454 2185
454 2189
455 2189
455 2187
456 2187
456 2195
457 2195
457 2190
458 2190
458 2195
459 2195
459 2196
460 2196
460 2198
461 2198
461 2197
462 2197
463 2197
463 2196
464 2196
464 2194
465 2194
466 2194
466 2191
467 2191
467 2188
468 2188
469 2188
469 2184
470 2184
470 2177
471 2177
471 2178
472 2178
472 2177
473 2177
473 2170
474 2170
474 2168
475 2168
475 2160
476 2160
476 2158
477 2158
477 2154
478 2154
478 2156
479 2156
479 2145
480 2145
480 2135
481 2135
482 2135
482 2134
483 2134
483 2110
484 2110
484 2127
485 2127
485 2119
486 2119
486 2116
487 2116
487 2112
488 2112
488 2107
489 2107
489 2095
490 2095
490 2100
491 2100
491 2113
492 2113
492 2098
493 2098
493 2094
494 2094
494 2060
495 2060
495 2080
496 2080
496 2078
497 2078
497 2070
498 2070
499 2070
499 2055
500 2055
500 2060
501 2060
502 2060
502 2058
503 2058
503 2025
504 2025
504 2050
505 2050
505 2047
506 2047
506 2042
507 2042
507 2053
508 2053
508 2036
509 2036
509 2030
510 2030
510 2028
511 2028
511 2029
512 2029
512 2028
513 2028
513 2022
514 2022
514 2018
515 2018
515 2014
516 2014
516 2011
517 2011
517 2012
518 2012
518 2004
519 2004
519 1988
520 1988
520 1994
521 1994
521 1998
522 1998
522 1992
523 1992
523 1986
524 1986
524 1983
525 1983
525 1982
526 1982
526 2006
527 2006
527 1981
528 1981
528 1977
529 1977
529 1971
530 1971
531 1971
531 1948
532 1948
532 1968
533 1968
533 1958
534 1958
534 1959
535 1959
535 1968
536 1968
536 1953
537 1953
537 1954
538 1954
538 1957
539 1957
539 1958
540 1958
541 1958
541 1955
542 1955
542 2005
543 2005
543 1952
544 1952
544 1958
545 1958
545 1952
546 1952
547 1952
547 1950
548 1950
548 1951
549 1951
549 1948
550 1948
550 1943
551 1943
551 1940
552 1940
552 1943
553 1943
553 1939
554 1939
554 1938
555 1938
555 1935
556 1935
556 1936
557 1936
557 1935
558 1935
559 1935
559 1932
560 1932
560 1934
561 1934
561 1932
562 1932
562 1928
563 1928
563 1929
564 1929
565 1929
565 1926
566 1926
567 1926
567 1925
568 1925
569 1925
569 1932
570 1932
570 1937
571 1937
571 1924
572 1924
572 1930
573 1930
573 1931
574 1931
574 1929
575 1929
575 1944
576 1944
576 1929
577 1929
578 1929
578 1932
579 1932
579 1931
580 1931
580 1935
581 1935
581 1936
582 1936
583 1936
584 1936
584 1935
585 1935
585 1932
586 1932
586 1926
587 1926
587 1936
588 1936
588 1940
589 1940
589 1938
590 1938
590 1937
591 1937
591 1938
592 1938
592 1936
593 1936
593 1941
594 1941
594 1936
595 1936
595 1944
596 1944
596 1932
597 1932
597 1935
598 1935
598 1942
599 1942
599 1936
600 1936
600 1933
601 1933
601 1939
602 1939
602 1936
603 1936
604 1936
604 1941
605 1941
605 1935
606 1935
606 1936
607 1936
608 1936
608 1933
609 1933
609 1936
610 1936
610 1940
611 1940
611 1939
612 1939
613 1939
614 1939
614 1935
615 1935
615 1938
616 1938
616 1941
617 1941
617 1934
618 1934
618 1940
619 1940
619 1939
620 1939
620 1937
621 1937
621 1942
622 1942
622 1939
623 1939
623 1942
624 1942
624 1940
625 1940
625 1942
626 1942
626 1941
627 1941
627 1945
628 1945
628 1944
629 1944
629 1948
630 1948
630 1945
631 1945
632 1945
632 1951
633 1951
633 1948
634 1948
634 1952
635 1952
636 1952
636 1951
637 1951
637 1954
638 1954
638 1955
639 1955
639 1957
640 1957
640 1947
641 1947
641 1957
642 1957
642 1956
643 1956
643 1961
644 1961
644 1959
645 1959
645 1960
646 1960
646 1964
647 1964
647 1968
648 1968
648 1967
649 1967
649 1966
650 1966
651 1966
651 1963
652 1963
652 1968
653 1968
654 1968
654 1971
655 1971
655 1970
656 1970
656 1973
657 1973
657 1977
658 1977
658 1978
659 1978
659 1982
660 1982
660 1960
661 1960
661 1982
662 1982
662 1991
663 1991
663 1989
664 1989
664 1991
665 1991
665 1994
666 1994
666 1995
667 1995
667 2000
668 2000
668 2001
669 2001
669 2006
670 2006
670 2015
671 2015
671 2025
672 2025
672 2016
673 2016
673 2018
674 2018
674 2015
675 2015
675 2024
676 2024
677 2024
678 2024
678 2027
679 2027
679 2032
680 2032
680 2036
681 2036
681 2035
682 2035
682 2036
683 2036
683 2039
684 2039
684 2062
685 2062
685 2040
686 2040
686 2044
687 2044
687 2040
688 2040
688 2043
689 2043
689 2050
690 2050
690 2024
691 2024
691 2051
692 2051
692 2053
693 2053
693 2051
694 2051
694 2057
695 2057
695 2058
696 2058
696 2080
697 2080
697 2060
698 2060
698 2066
699 2066
699 2065
700 2065
700 2061
701 2061
701 2055
702 2055
702 2069
703 2069
703 2070
704 2070
704 2069
705 2069
705 2071
706 2071
706 2072
707 2072
707 2073
708 2073
708 2077
709 2077
709 2080
710 2080
710 2077
711 2077
711 2079
712 2079
712 2080
713 2080
713 2135
714 2135
714 2086
715 2086
715 2084
716 2084
716 2087
717 2087
717 2084
718 2084
718 2087
719 2087
719 2091
720 2091
720 2092
721 2092
721 2109
722 2109
722 2132
723 2132
723 2090
724 2090
724 2075
725 2075
725 2079
726 2079
726 2100
727 2100
727 2097
728 2097
729 2097
729 2100
730 2100
730 2101
731 2101
732 2101
733 2101
733 2102
734 2102
734 2101
735 2101
735 2103
736 2103
737 2103
737 2107
738 2107
738 2103
739 2103
739 2106
740 2106
741 2106
741 2109
742 2109
742 2106
743 2106
743 2109
744 2109
744 2112
745 2112
745 2109
746 2109
746 2107
747 2107
747 2101
748 2101
748 2108
749 2108
749 2110
750 2110
750 2104
751 2104
751 1700
752 1700
752 1653
753 1653
753 1655
754 1655
754 1657
755 1657
755 1673
756 1673
756 1682
757 1682
757 1689
758 1689
758 1701
759 1701
759 1718
760 1718
760 1720
761 1720
761 1736
762 1736
762 1769
763 1769
763 1781
764 1781
764 1787
765 1787
765 1824
766 1824
766 1811
767 1811
767 1817
768 1817
768 1824
769 1824
769 1832
770 1832
770 1840
771 1840
771 1854
772 1854
772 1857
773 1857
773 1862
774 1862
774 1875
775 1875
775 1887
776 1887
776 1894
777 1894
777 1901
778 1901
778 1905
779 1905
779 1920
780 1920
780 1924
781 1924
781 1927
782 1927
782 1935
783 1935
783 1946
784 1946
784 1953
785 1953
785 1958
786 1958
786 1963
787 1963
787 1973
788 1973
788 1974
789 1974
789 1976
790 1976
790 1987
791 1987
791 1992
792 1992
792 1991
793 1991
793 2005
794 2005
794 2006
795 2006
795 2003
796 2003
796 2060
797 2060
797 2021
798 2021
798 2029
799 2029
799 2031
800 2031
801 2031
801 2037
802 2037
802 2046
803 2046
803 2064
804 2064
804 2051
805 2051
806 2051
806 2067
807 2067
808 2067
808 2070
809 2070
810 2070
810 2074
811 2074
811 2075
812 2075
813 2075
813 2087
814 2087
814 2086
815 2086
815 2091
816 2091
816 2105
817 2105
817 2098
818 2098
818 2077
819 2077
819 2105
820 2105
820 2095
821 2095
821 2111
822 2111
822 2115
823 2115
823 2117
824 2117
825 2117
826 2117
826 2118
827 2118
827 2128
828 2128
828 2125
829 2125
829 2126
830 2126
830 2127
831 2127
831 2132
832 2132
832 2134
833 2134
834 2134
834 2136
835 2136
835 2138
836 2138
836 2136
837 2136
837 2139
838 2139
838 2136
839 2136
840 2136
841 2136
841 2140
842 2140
842 2137
843 2137
843 2138
844 2138
845 2138
845 2131
846 2131
846 2132
847 2132
847 2131
848 2131
848 2128
849 2128
849 2129
850 2129
850 2128
851 2128
851 2123
852 2123
852 2118
853 2118
853 2115
854 2115
854 2104
855 2104
855 2117
856 2117
856 2113
857 2113
857 2107
858 2107
858 2106
859 2106
859 2093
860 2093
860 2080
861 2080
862 2080
862 2064
863 2064
863 2063
864 2063
865 2063
865 2068
866 2068
866 2062
867 2062
867 2048
868 2048
868 2052
869 2052
869 2002
870 2002
870 2035
871 2035
871 2039
872 2039
872 2034
873 2034
873 2026
874 2026
874 2019
875 2019
875 2013
876 2013
876 2012
877 2012
877 2032
878 2032
878 2007
879 2007
879 1998
880 1998
881 1998
881 1992
882 1992
882 1989
883 1989
883 1988
884 1988
884 1987
885 1987
885 1974
886 1974
886 1965
887 1965
887 1946
888 1946
888 1967
889 1967
889 1961
890 1961
890 1956
891 1956
891 1951
892 1951
892 1952
893 1952
893 1947
894 1947
894 1917
895 1917
895 1936
896 1936
896 1930
897 1930
897 1938
898 1938
898 1931
899 1931
899 1934
900 1934
900 1932
901 1932
901 1927
902 1927
902 1926
903 1926
903 1920
904 1920
904 1917
905 1917
905 1926
906 1926
906 1921
907 1921
907 1922
908 1922
908 1929
909 1929
909 1919
910 1919
910 1932
911 1932
911 1925
912 1925
912 1917
913 1917
913 1925
914 1925
914 1921
915 1921
915 1928
916 1928
917 1928
917 1932
918 1932
918 1936
919 1936
919 1926
920 1926
920 1918
921 1918
921 1939
922 1939
922 1942
923 1942
923 1943
924 1943
924 1946
925 1946
926 1946
927 1946
927 1949
928 1949
928 1929
929 1929
929 1928
930 1928
930 1946
931 1946
931 1961
932 1961
932 1962
933 1962
933 1964
934 1964
934 1968
935 1968
935 1971
936 1971
937 1971
937 1974
938 1974
938 1965
939 1965
939 1977
940 1977
940 1967
941 1967
941 1984
942 1984
942 1986
943 1986
943 1974
944 1974
944 1987
945 1987
945 1990
946 1990
946 1997
947 1997
947 2005
948 2005
948 1988
949 1988
949 2003
950 2003
950 2005
951 2005
951 1991
952 1991
952 2005
953 2005
953 2009
954 2009
954 2011
955 2011
955 2018
956 2018
956 2011
957 2011
957 2024
958 2024
958 2012
959 2012
959 2015
960 2015
960 2029
961 2029
961 2031
962 2031
962 2014
963 2014
963 2017
964 2017
964 2038
965 2038
965 2040
966 2040
966 2032
967 2032
967 2036
968 2036
968 2043
969 2043
969 2047
970 2047
970 2044
971 2044
971 2048
972 2048
972 2050
973 2050
973 2063
974 2063
974 2067
975 2067
975 2068
976 2068
976 2064
977 2064
977 2069
978 2069
978 2081
979 2081
979 2074
980 2074
980 2088
981 2088
981 2086
982 2086
982 2106
983 2106
983 2152
984 2152
984 2100
985 2100
985 2104
986 2104
986 2087
987 2087
987 2106
988 2106
988 2100
989 2100
989 2115
990 2115
990 2112
991 2112
991 2117
992 2117
992 2125
993 2125
993 2130
994 2130
994 2122
995 2122
995 2127
996 2127
996 2132
997 2132
997 2133
998 2133
998 2132
999 2132
999 2141
1000 2141
1000 2139
1001 2139
1001 2148
1002 2148
1003 2148
1004 2148
1005 2148
1005 2152
1006 2152
1006 2154
1007 2154
1007 2158
1008 2158
1008 2155
1009 2155
1009 2163
1010 2163
1011 2163
1011 2166
1012 2166
1012 2162
1013 2162
1013 2165
1014 2165
1014 2153
1015 2153
1015 2171
1016 2171
1016 2169
1017 2169
1017 2166
1018 2166
1018 2173
1019 2173
1019 2170
1020 2170
1020 2175
1021 2175
1021 2171
1022 2171
1022 2179
1023 2179
1023 2177
1024 2177
1024 2176
1025 2176
1025 2172
1026 2172
1026 2174
1027 2174
1027 2173
1028 2173
1028 2174
1029 2174
1029 2172
1030 2172
1030 2174
1031 2174
1031 2175
1032 2175
1032 2176
1033 2176
1034 2176
1034 2171
1035 2171
1035 2172
1036 2172
1036 2173
1037 2173
1038 2173
1038 2166
1039 2166
1039 2169
1040 2169
1040 2170
1041 2170
1041 2167
1042 2167
1042 2165
1043 2165
1043 2163
1044 2163
1044 2159
1045 2159
1045 2147
1046 2147
1046 2160
1047 2160
1047 2157
1048 2157
1048 2153
1049 2153
1049 2154
1050 2154
1050 2150
1051 2150
1051 2148
1052 2148
1052 2146
1053 2146
1053 2141
1054 2141
1054 2139
1055 2139
1055 2144
1056 2144
1056 2135
1057 2135
1057 2137
1058 2137
1058 2124
1059 2124
1059 2131
1060 2131
1060 2126
1061 2126
1061 2127
1062 2127
1062 2123
1063 2123
1063 2117
1064 2117
1064 2089
1065 2089
1065 2110
1066 2110
1066 2112
1067 2112
1067 2104
1068 2104
1068 2148
1069 2148
1069 2095
1070 2095
1070 2098
1071 2098
1071 2092
1072 2092
1072 2124
1073 2124
1073 2086
1074 2086
1075 2086
1075 2080
1076 2080
1076 2069
1077 2069
1077 2070
1078 2070
1078 2145
1079 2145
1079 2155
1080 2155
1080 2145
1081 2145
1081 2147
1082 2147
1082 2145
1083 2145
1083 2138
1084 2138
1084 2129
1085 2129
1085 2128
1086 2128
1086 2130
1087 2130
1087 2117
1088 2117
1088 2116
1089 2116
1089 2106
1090 2106
1090 2101
1091 2101
1091 2147
1092 2147
1092 2088
1093 2088
1093 2083
1094 2083
1094 2081
1095 2081
1095 2072
1096 2072
1096 2069
1097 2069
1097 2062
1098 2062
1098 2063
1099 2063
1099 2050
1100 2050
1100 2053
1101 2053
1101 2039
1102 2039
1102 2030
1103 2030
1103 2026
1104 2026
1104 2021
1105 2021
1105 2020
1106 2020
1106 2009
1107 2009
1107 2007
1108 2007
1108 2005
1109 2005
1109 1998
1110 1998
1110 1966
1111 1966
1111 1986
1112 1986
1112 1985
1113 1985
1113 1975
1114 1975
1114 1970
1115 1970
1115 1969
1116 1969
1116 1965
1117 1965
1117 1951
1118 1951
1118 1947
1119 1947
1119 1937
1120 1937
1120 1942
1121 1942
1121 1928
1122 1928
1122 1926
1123 1926
1123 1916
1124 1916
1124 1915
1125 1915
1125 1913
1126 1913
1126 1898
1127 1898
1127 1894
1128 1894
1128 1892
1129 1892
1129 1883
1130 1883
1130 1879
1131 1879
1131 1875
1132 1875
1132 1872
1133 1872
1133 1868
1134 1868
1134 1831
1135 1831
1135 1863
1136 1863
1136 1852
1137 1852
1137 1854
1138 1854
1138 1855
1139 1855
1139 1849
1140 1849
1140 1842
1141 1842
1142 1842
1142 1836
1143 1836
1143 1832
1144 1832
1144 1820
1145 1820
1145 1793
1146 1793
1146 1816
1147 1816
1147 1818
1148 1818
1148 1802
1149 1802
1149 1824
1150 1824
1150 1800
1151 1800
1151 1797
1152 1797
1152 1792
1153 1792
1153 1781
1154 1781
1154 1774
1155 1774
1155 1771
1156 1771
1156 1769
1157 1769
1157 1762
1158 1762
1158 1764
1159 1764
1159 1765
1160 1765
1160 1756
1161 1756
1161 1757
1162 1757
1162 1743
1163 1743
1163 1737
1164 1737
1164 1733
1165 1733
1165 1731
1166 1731
1166 1728
1167 1728
1167 1725
1168 1725
1168 1729
1169 1729
1169 1728
1170 1728
1170 1711
1171 1711
1171 1716
1172 1716
1172 1712
1173 1712
1173 1702
1174 1702
1174 1697
1175 1697
1175 1692
1176 1692
1176 1690
1177 1690
1177 1682
1178 1682
1178 1679
1179 1679
1179 1680
1180 1680
1180 1686
1181 1686
1181 1677
1182 1677
1182 1679
1183 1679
1183 1668
1184 1668
1184 1661
1185 1661
1185 1663
1186 1663
1186 1664
1187 1664
1187 1643
1188 1643
1188 1654
1189 1654
1189 1644
1190 1644
1190 1646
1191 1646
1191 1640
1192 1640
1192 1642
1193 1642
1193 1633
1194 1633
1195 1633
1195 1623
1196 1623
1197 1623
1197 1618
1198 1618
1198 1615
1199 1615
1199 1614
1200 1614
1200 1610
1201 1610
1201 1586
1202 1586
1202 1615
1203 1615
1203 1614
1204 1614
1204 1597
1205 1597
1205 1595
1206 1595
1206 1587
1207 1587
1207 1589
1208 1589
1208 1586
1209 1586
1209 1592
1210 1592
1210 1586
1211 1586
1211 1583
1212 1583
1212 1586
1213 1586
1213 1589
1214 1589
1214 1584
1215 1584
1215 1578
1216 1578
1216 1567
1217 1567
1217 1562
1218 1562
1218 1568
1219 1568
1219 1558
1220 1558
1220 1553
1221 1553
1221 1554
1222 1554
1222 1551
1223 1551
1223 1554
1224 1554
1224 1555
1225 1555
1225 1545
1226 1545
1226 1538
1227 1538
1227 1537
1228 1537
1228 1538
1229 1538
1229 1533
1230 1533
1230 1534
1231 1534
1231 1543
1232 1543
1232 1533
1233 1533
1233 1531
1234 1531
1234 1524
1235 1524
1235 1522
1236 1522
1236 1524
1237 1524
1237 1531
1238 1531
1239 1531
1239 1518
1240 1518
1241 1518
1242 1518
1242 1501
1243 1501
1243 1521
1244 1521
1244 1514
1245 1514
1246 1514
1246 1506
1247 1506
1247 1510
1248 1510
1248 1502
1249 1502
1249 1497
1250 1497
1250 1498
1251 1498
1252 1498
1252 1488
1253 1488
1253 1485
1254 1485
1255 1485
1255 1501
1256 1501
1256 1488
1257 1488
1257 1543
1258 1543
1258 1481
1259 1481
1259 1471
1260 1471
1260 1473
1261 1473
1261 1479
1262 1479
1262 1480
1263 1480
1263 1476
1264 1476
1264 1469
1265 1469
1265 1484
1266 1484
1266 1474
1267 1474
1267 1479
1268 1479
1268 1477
1269 1477
1269 1458
1270 1458
1270 1460
1271 1460
1271 1458
1272 1458
1272 1466
1273 1466
1273 1469
1274 1469
1274 1465
1275 1465
1275 1467
1276 1467
1276 1465
1277 1465
1277 1458
1278 1458
1278 1468
1279 1468
1279 1462
1280 1462
1280 1455
1281 1455
1281 1451
1282 1451
1282 1462
1283 1462
1283 1449
1284 1449
1284 1445
1285 1445
1286 1445
1286 1451
1287 1451
1287 1447
1288 1447
1288 1438
1289 1438
1289 1490
1290 1490
1290 1441
1291 1441
1291 1440
1292 1440
1292 1447
1293 1447
1293 1453
1294 1453
1294 1434
1295 1434
1295 1435
1296 1435
1296 1428
1297 1428
1297 1425
1298 1425
1298 1432
1299 1432
1299 1440
1300 1440
1300 1422
1301 1422
1301 1440
1302 1440
1302 1418
1303 1418
1303 1440
1304 1440
1304 1419
1305 1419
1305 1430
1306 1430
1307 1430
1307 1427
1308 1427
1308 1420
1309 1420
1309 1401
1310 1401
1310 1421
1311 1421
1311 1409
1312 1409
1312 1408
1313 1408
1313 1403
1314 1403
1314 1396
1315 1396
1315 1409
1316 1409
1316 1413
1317 1413
1317 1401
1318 1401
1318 1444
1319 1444
1319 1396
1320 1396
1320 1404
1321 1404
1321 1397
1322 1397
1322 1396
1323 1396
1323 1401
1324 1401
1324 1409
1325 1409
1325 1390
1326 1390
1326 1389
1327 1389
1327 1388
1328 1388
1328 1392
1329 1392
1329 1443
1330 1443
1330 1400
1331 1400
1331 1388
1332 1388
1332 1391
1333 1391
1333 1393
1334 1393
1334 1387
1335 1387
1335 1391
1336 1391
1336 1388
1337 1388
1337 1384
1338 1384
1338 1379
1339 1379
1339 1377
1340 1377
1340 1376
1341 1376
1341 1375
1342 1375
1342 1373
1343 1373
1344 1373
1344 1374
1345 1374
1346 1374
1346 1382
1347 1382
1347 1383
1348 1383
1348 1380
1349 1380
1349 1386
1350 1386
1350 1377
1351 1377
1351 1372
1352 1372
1352 1366
1353 1366
1353 1371
1354 1371
1354 1374
1355 1374
1355 1379
1356 1379
1356 1376
1357 1376
1357 1371
1358 1371
1358 1375
1359 1375
1359 1370
1360 1370
1360 1373
1361 1373
1361 1371
1362 1371
1362 1361
1363 1361
1363 1362
1364 1362
1364 1365
1365 1365
1365 1367
1366 1367
1366 1370
1367 1370
1368 1370
1368 1363
1369 1363
1369 1370
1370 1370
1370 1365
1371 1365
1371 1413
1372 1413
1372 1366
1373 1366
1373 1355
1374 1355
1374 1362
1375 1362
1375 1359
1376 1359
1376 1360
1377 1360
1377 1359
1378 1359
1378 1354
1379 1354
1379 1361
1380 1361
1380 1336
1381 1336
1381 1357
1382 1357
1382 1353
1383 1353
1383 1352
1384 1352
1384 1356
1385 1356
1385 1351
1386 1351
1386 1350
1387 1350
1387 1360
1388 1360
1388 1359
1389 1359
1389 1348
1390 1348
1390 1346
1391 1346
1391 1353
1392 1353
1393 1353
1394 1353
1394 1349
1395 1349
1395 1355
1396 1355
1396 1358
1397 1358
1397 1352
1398 1352
1398 1348
1399 1348
1399 1345
1400 1345
1400 1468
1401 1468
1401 1426
1402 1426
1403 1426
1403 1421
1404 1421
1404 1419
1405 1419
1405 1415
1406 1415
1406 1397
1407 1397
1407 1392
1408 1392
1408 1401
1409 1401
1409 1398
1410 1398
1410 1390
1411 1390
1411 1387
1412 1387
1412 1385
1413 1385
1413 1379
1414 1379
1414 1376
1415 1376
1416 1376
1416 1365
1417 1365
1418 1365
1418 1366
1419 1366
1419 1365
1420 1365
1420 1366
1421 1366
1421 1363
1422 1363
1422 1355
1423 1355
1424 1355
1424 1361
1425 1361
1425 1359
1426 1359
1426 1352
1427 1352
1427 1353
1428 1353
1428 1351
1429 1351
1429 1350
1430 1350
1430 1351
1431 1351
1431 1353
1432 1353
1432 1354
1433 1354
1433 1349
1434 1349
1434 1353
1435 1353
1435 1337
1436 1337
1436 1349
1437 1349
1437 1348
1438 1348
1438 1347
1439 1347
1439 1341
1440 1341
1440 1351
1441 1351
1441 1349
1442 1349
1442 1353
1443 1353
1443 1356
1444 1356
1444 1344
1445 1344
1445 1349
1446 1349
1447 1349
1447 1347
1448 1347
1448 1351
1449 1351
1449 1349
1450 1349
1450 1350
1451 1350
1451 1346
1452 1346
1452 1348
1453 1348
1453 1350
1454 1350
1454 1347
1455 1347
1455 1346
1456 1346
1456 1351
1457 1351
1458 1351
1458 1350
1459 1350
1459 1351
1460 1351
1461 1351
1461 1353
1462 1353
1462 1350
1463 1350
1463 1347
1464 1347
1464 1350
1465 1350
1465 1346
1466 1346
1466 1350
1467 1350
1467 1352
1468 1352
1468 1344
1469 1344
1469 1346
1470 1346
1471 1346
1471 1353
1472 1353
1472 1348
1473 1348
1474 1348
1474 1347
1475 1347
1475 1350
1476 1350
1476 1352
1477 1352
1477 1347
1478 1347
1479 1347
1479 1344
1480 1344
1480 1346
1481 1346
1481 1349
1482 1349
1483 1349
1483 1351
1484 1351
1484 1350
1485 1350
1486 1350
1486 1352
1487 1352
1487 1346
1488 1346
1488 1348
1489 1348
1489 1349
1490 1349
1490 1317
1491 1317
1491 1352
1492 1352
1492 1347
1493 1347
1493 1340
1494 1340
1494 1356
1495 1356
1495 1350
1496 1350
1496 1352
1497 1352
1498 1352
1498 1337
1499 1337
1499 1356
1500 1356
1500 1352
1501 1352
1502 1352
1502 1351
1503 1351
1503 1348
1504 1348
1504 1355
1505 1355
1505 1351
1506 1351
1506 1350
1507 1350
1507 1354
1508 1354
1508 1353
1509 1353
1509 1359
1510 1359
1510 1355
1511 1355
1511 1359
1512 1359
1512 1357
1513 1357
1513 1358
1514 1358
1515 1358
1516 1358
1516 1359
1517 1359
1517 1355
1518 1355
1518 1360
1519 1360
1519 1361
1520 1361
1520 1368
1521 1368
1521 1363
1522 1363
1522 1362
1523 1362
1523 1363
1524 1363
1524 1366
1525 1366
1526 1366
1526 1361
1527 1361
1527 1365
1528 1365
1528 1367
1529 1367
1530 1367
1530 1371
1531 1371
1531 1365
1532 1365
1532 1369
1533 1369
1533 1367
1534 1367
1534 1370
1535 1370
1535 1374
1536 1374
1536 1367
1537 1367
1537 1371
1538 1371
1538 1376
1539 1376
1539 1379
1540 1379
1541 1379
1541 1375
1542 1375
1542 1381
1543 1381
1543 1386
1544 1386
1544 1380
1545 1380
1545 1384
1546 1384
1546 1388
1547 1388
1547 1382
1548 1382
1548 1386
1549 1386
1549 1426
1550 1426
1550 1389
1551 1389
1551 1393
1552 1393
1552 1391
1553 1391
1553 1389
1554 1389
1554 1390
1555 1390
1555 1392
1556 1392
1556 1395
1557 1395
1557 1396
1558 1396
1558 1400
1559 1400
1559 1396
1560 1396
1560 1401
1561 1401
1561 1402
1562 1402
1562 1414
1563 1414
1563 1404
1564 1404
1564 1409
1565 1409
1565 1384
1566 1384
1566 1411
1567 1411
1567 1414
1568 1414
1568 1415
1569 1415
1569 1422
1570 1422
1570 1420
1571 1420
1572 1420
1572 1418
1573 1418
1573 1415
1574 1415
1574 1419
1575 1419
1575 1427
1576 1427
1576 1426
1577 1426
1577 1432
1578 1432
1578 1426
1579 1426
1579 1428
1580 1428
1580 1430
1581 1430
1581 1436
1582 1436
1582 1435
1583 1435
1583 1432
1584 1432
1584 1440
1585 1440
1585 1441
1586 1441
1586 1428
1587 1428
1587 1442
1588 1442
1588 1445
1589 1445
1589 1450
1590 1450
1590 1447
1591 1447
1591 1454
1592 1454
1592 1453
1593 1453
1593 1456
1594 1456
1594 1458
1595 1458
1595 1461
1596 1461
1596 1464
1597 1464
1597 1463
1598 1463
1598 1466
1599 1466
1599 1472
1600 1472
1601 1472
1601 1478
0 1478
0 1478
