#dados fit:
#z<0
#lambda= 2.9574985143 +- 0.18979188355
#k=2.1244931406725429 +- 0.136335
#z>0
#lambda=1.659166837 +- 0.100896608789
#k=3.7869520816486681 +- 0.230291
#z>0 e range2:
#lambda=1.86577784473 +- 0.17605209624




0 1756
1 1756
1 1780
2 1780
2 1779
3 1779
3 1777
4 1777
4 1783
5 1783
5 1779
7 1779
8 1779
8 1780
9 1780
9 1778
10 1778
10 1777
11 1777
11 1776
12 1776
12 1777
13 1777
13 1776
14 1776
14 1777
15 1777
15 1776
16 1776
16 1778
17 1778
17 1780
18 1780
19 1780
19 1774
20 1774
20 1778
21 1778
21 1779
22 1779
22 1776
23 1776
23 1778
24 1778
24 1789
25 1789
25 1777
26 1777
26 1769
27 1769
27 1780
28 1780
28 1778
29 1778
30 1778
30 1779
31 1779
31 1780
32 1780
32 1775
33 1775
33 1777
34 1777
34 1778
35 1778
36 1778
36 1763
37 1763
37 1773
38 1773
38 1777
39 1777
39 1782
40 1782
40 1772
41 1772
41 1778
42 1778
42 1779
43 1779
44 1779
44 1778
45 1778
45 1776
46 1776
46 1777
47 1777
47 1776
48 1776
48 1778
49 1778
49 1780
50 1780
50 1778
51 1778
52 1778
52 1779
53 1779
53 1777
54 1777
54 1780
55 1780
55 1782
56 1782
56 1780
57 1780
57 1777
58 1777
58 1779
59 1779
59 1778
60 1778
60 1779
61 1779
61 1776
62 1776
63 1776
63 1779
64 1779
64 1777
65 1777
65 1779
66 1779
66 1778
67 1778
68 1778
68 1775
69 1775
69 1778
70 1778
70 1780
71 1780
71 1779
72 1779
72 1780
73 1780
74 1780
74 1779
75 1779
75 1783
76 1783
76 1778
77 1778
77 1775
78 1775
78 1779
79 1779
79 1767
80 1767
80 1777
81 1777
81 1779
82 1779
82 1780
83 1780
83 1753
84 1753
84 1777
85 1777
85 1778
86 1778
87 1778
87 1820
88 1820
88 1781
89 1781
89 1782
90 1782
90 1763
91 1763
91 1779
92 1779
92 1777
93 1777
93 1778
94 1778
95 1778
96 1778
96 1779
97 1779
98 1779
98 1777
99 1777
99 1778
100 1778
100 1776
101 1776
101 1777
102 1777
102 1781
103 1781
103 1780
104 1780
104 1778
105 1778
105 1754
106 1754
106 1839
107 1839
107 1790
108 1790
108 1764
109 1764
109 1773
110 1773
110 1776
111 1776
111 1778
112 1778
112 1779
113 1779
113 1781
114 1781
114 1778
115 1778
115 1779
116 1779
116 1777
117 1777
117 1778
118 1778
118 1752
119 1752
119 1778
120 1778
120 1780
121 1780
121 1779
122 1779
122 1781
123 1781
123 1779
124 1779
124 1780
125 1780
125 1779
126 1779
126 1776
127 1776
128 1776
128 1778
129 1778
129 1756
130 1756
130 1771
131 1771
131 1781
132 1781
132 1771
133 1771
133 1798
134 1798
134 1777
135 1777
135 1783
136 1783
136 1778
137 1778
137 1779
138 1779
138 1776
139 1776
139 1779
140 1779
140 1778
141 1778
141 1779
142 1779
143 1779
144 1779
145 1779
145 1776
146 1776
146 1777
147 1777
147 1779
148 1779
148 1778
149 1778
149 1780
150 1780
150 1836
151 1836
151 1780
152 1780
152 1782
153 1782
153 1778
154 1778
154 1780
155 1780
156 1780
157 1780
157 1779
158 1779
159 1779
159 1778
160 1778
160 1774
161 1774
161 1782
162 1782
162 1776
163 1776
163 1778
164 1778
164 1779
165 1779
165 1778
166 1778
166 1779
167 1779
167 1777
168 1777
168 1775
169 1775
169 1777
170 1777
170 1779
171 1779
171 1778
172 1778
172 1781
173 1781
173 1778
174 1778
174 1792
175 1792
175 1777
176 1777
177 1777
178 1777
178 1782
179 1782
179 1775
180 1775
180 1772
181 1772
181 1782
182 1782
182 1784
183 1784
183 1785
184 1785
184 1780
185 1780
185 1773
186 1773
186 1778
187 1778
187 1783
188 1783
188 1779
189 1779
190 1779
190 1777
191 1777
191 1781
192 1781
192 1779
193 1779
193 1780
194 1780
194 1778
195 1778
196 1778
196 1831
197 1831
197 1767
198 1767
198 1782
199 1782
199 1779
200 1779
201 1779
201 1780
202 1780
202 1778
203 1778
203 1777
204 1777
205 1777
205 1778
206 1778
206 1777
207 1777
207 1781
208 1781
208 1779
209 1779
209 1778
210 1778
210 1783
211 1783
211 1777
212 1777
212 1760
213 1760
213 1780
214 1780
214 1779
215 1779
215 1784
216 1784
216 1782
217 1782
217 1781
218 1781
219 1781
219 1778
220 1778
221 1778
221 1780
222 1780
222 1778
223 1778
223 1781
224 1781
224 1828
225 1828
225 1747
226 1747
226 1782
227 1782
227 1783
228 1783
228 1781
229 1781
229 1787
230 1787
230 1779
231 1779
231 1780
232 1780
232 1778
233 1778
233 1780
234 1780
234 1779
235 1779
235 1780
236 1780
236 1778
237 1778
237 1781
238 1781
238 1776
239 1776
239 1817
240 1817
240 1782
241 1782
241 1777
242 1777
242 1778
243 1778
244 1778
244 1777
245 1777
245 1781
246 1781
246 1764
247 1764
247 1757
248 1757
248 1762
249 1762
249 1779
250 1779
250 1780
251 1780
251 1778
252 1778
252 1781
253 1781
253 1779
254 1779
254 1780
255 1780
255 1784
256 1784
256 1778
257 1778
257 1780
258 1780
258 1761
259 1761
259 1823
260 1823
260 1782
261 1782
261 1779
262 1779
262 1780
263 1780
263 1781
264 1781
264 1776
265 1776
265 1780
266 1780
266 1778
267 1778
267 1779
268 1779
269 1779
270 1779
270 1780
271 1780
271 1781
272 1781
272 1780
273 1780
273 1779
274 1779
274 1783
275 1783
275 1780
276 1780
277 1780
278 1780
279 1780
280 1780
280 1781
281 1781
281 1777
282 1777
282 1778
283 1778
283 1781
284 1781
284 1776
285 1776
285 1780
286 1780
286 1782
287 1782
287 1778
288 1778
288 1779
289 1779
289 1777
290 1777
290 1782
291 1782
291 1779
292 1779
292 1781
293 1781
293 1782
294 1782
294 1773
295 1773
295 1778
296 1778
296 1781
297 1781
297 1780
298 1780
298 1775
299 1775
299 1781
300 1781
300 1783
301 1783
301 1781
302 1781
302 1776
303 1776
303 1778
304 1778
304 1780
305 1780
305 1781
306 1781
306 1780
307 1780
307 1783
308 1783
308 1779
309 1779
309 1784
310 1784
310 1781
311 1781
311 1779
312 1779
312 1781
313 1781
314 1781
315 1781
315 1782
316 1782
316 1778
317 1778
317 1782
318 1782
318 1780
319 1780
319 1778
320 1778
321 1778
321 1776
322 1776
322 1777
323 1777
323 1779
324 1779
324 1781
325 1781
325 1774
326 1774
326 1779
327 1779
328 1779
328 1788
329 1788
329 1778
330 1778
330 1770
331 1770
331 1777
332 1777
332 1778
333 1778
333 1780
334 1780
334 1779
335 1779
335 1777
336 1777
336 1792
337 1792
337 1777
338 1777
338 1781
339 1781
339 1756
340 1756
340 1779
341 1779
341 1776
342 1776
342 1779
343 1779
343 1778
344 1778
344 1781
345 1781
345 1780
346 1780
346 1779
347 1779
347 1781
348 1781
348 1778
349 1778
349 1779
350 1779
350 1775
351 1775
351 1773
352 1773
352 1782
353 1782
353 1777
354 1777
354 1778
355 1778
355 1779
356 1779
356 1777
357 1777
357 1780
358 1780
358 1761
359 1761
359 1780
360 1780
361 1780
361 1777
362 1777
362 1784
363 1784
363 1775
364 1775
364 1780
365 1780
366 1780
367 1780
367 1778
368 1778
368 1782
369 1782
369 1780
370 1780
371 1780
371 1778
372 1778
372 1833
373 1833
373 1779
374 1779
374 1778
375 1778
375 1777
376 1777
376 1778
377 1778
377 1780
378 1780
378 1779
379 1779
379 1776
380 1776
380 1772
381 1772
381 1776
382 1776
382 1781
383 1781
383 1779
384 1779
384 1811
385 1811
385 1794
386 1794
386 1780
387 1780
388 1780
388 1778
389 1778
389 1780
390 1780
390 1782
391 1782
391 1773
392 1773
392 1779
393 1779
393 1780
394 1780
394 1778
395 1778
395 1780
396 1780
396 1778
397 1778
397 1784
398 1784
398 1780
399 1780
399 1777
400 1777
400 1778
401 1778
401 1781
402 1781
402 1780
403 1780
404 1780
404 1779
405 1779
405 1778
406 1778
406 1779
407 1779
407 1777
408 1777
408 1778
409 1778
409 1781
410 1781
410 1787
411 1787
411 1771
412 1771
412 1778
413 1778
414 1778
414 1780
415 1780
415 1778
416 1778
416 1780
417 1780
417 1782
418 1782
418 1778
419 1778
419 1780
420 1780
421 1780
421 1792
422 1792
422 1782
423 1782
423 1778
424 1778
425 1778
425 1777
426 1777
426 1780
427 1780
427 1779
428 1779
428 1767
429 1767
429 1769
430 1769
430 1768
431 1768
431 1763
432 1763
432 1778
433 1778
433 1784
434 1784
434 1779
435 1779
435 1785
436 1785
436 1777
437 1777
437 1780
438 1780
438 1779
439 1779
440 1779
440 1780
441 1780
441 1775
442 1775
442 1783
443 1783
443 1780
444 1780
444 1776
445 1776
446 1776
446 1780
447 1780
447 1770
448 1770
448 1784
449 1784
449 1776
450 1776
450 1779
451 1779
452 1779
452 1778
453 1778
453 1777
454 1777
454 1779
455 1779
455 1778
456 1778
456 1781
457 1781
457 1778
458 1778
458 1780
459 1780
460 1780
460 1779
461 1779
462 1779
462 1777
463 1777
463 1779
464 1779
464 1780
465 1780
465 1777
466 1777
466 1740
467 1740
467 1779
468 1779
468 1778
469 1778
470 1778
470 1781
471 1781
471 1774
472 1774
472 1780
473 1780
473 1777
474 1777
474 1778
475 1778
475 1777
476 1777
476 1780
477 1780
477 1778
478 1778
478 1780
479 1780
479 1810
480 1810
480 1779
481 1779
481 1778
482 1778
482 1780
483 1780
483 1779
484 1779
485 1779
485 1780
486 1780
486 1781
487 1781
487 1771
488 1771
488 1778
489 1778
489 1777
490 1777
490 1776
491 1776
491 1779
492 1779
492 1777
493 1777
493 1789
494 1789
494 1774
495 1774
495 1778
496 1778
496 1779
497 1779
497 1771
498 1771
498 1777
499 1777
499 1783
500 1783
500 1777
501 1777
501 1779
502 1779
502 1776
503 1776
503 1780
504 1780
504 1779
505 1779
506 1779
506 1780
507 1780
507 1782
508 1782
508 1778
509 1778
509 1780
510 1780
511 1780
511 1783
512 1783
512 1774
513 1774
513 1780
514 1780
515 1780
515 1781
516 1781
516 1778
517 1778
517 1780
518 1780
518 1779
519 1779
519 1776
520 1776
520 1778
521 1778
521 1781
522 1781
522 1778
523 1778
523 1776
524 1776
524 1779
525 1779
525 1778
526 1778
526 1783
527 1783
527 1784
528 1784
528 1779
529 1779
529 1780
530 1780
530 1781
531 1781
531 1780
532 1780
532 1777
533 1777
534 1777
534 1782
535 1782
535 1773
536 1773
536 1779
537 1779
537 1780
538 1780
538 1778
539 1778
539 1779
540 1779
540 1780
541 1780
541 1777
542 1777
542 1781
543 1781
543 1777
544 1777
544 1780
545 1780
545 1781
546 1781
546 1777
547 1777
547 1780
548 1780
548 1779
549 1779
549 1780
550 1780
550 1836
551 1836
551 1782
552 1782
552 1781
553 1781
553 1778
554 1778
554 1780
555 1780
555 1778
556 1778
556 1779
557 1779
557 1784
558 1784
558 1771
559 1771
559 1779
560 1779
560 1780
561 1780
561 1781
562 1781
562 1779
563 1779
563 1780
564 1780
564 1779
565 1779
566 1779
566 1778
567 1778
567 1779
568 1779
569 1779
569 1776
570 1776
570 1779
571 1779
571 1780
572 1780
572 1779
573 1779
573 1783
574 1783
574 1778
575 1778
575 1779
576 1779
576 1781
577 1781
577 1780
578 1780
579 1780
579 1778
580 1778
580 1781
581 1781
581 1777
582 1777
582 1780
583 1780
584 1780
584 1781
585 1781
585 1779
586 1779
586 1775
587 1775
587 1778
588 1778
588 1779
589 1779
589 1778
590 1778
591 1778
591 1754
592 1754
592 1776
593 1776
593 1777
594 1777
594 1779
595 1779
595 1776
596 1776
596 1779
597 1779
597 1768
598 1768
598 1779
599 1779
599 1776
600 1776
600 1780
601 1780
601 1776
602 1776
602 1751
603 1751
603 1779
604 1779
604 1777
605 1777
605 1779
606 1779
606 1778
607 1778
608 1778
608 1779
609 1779
609 1775
610 1775
610 1776
611 1776
611 1775
612 1775
612 1777
613 1777
613 1780
614 1780
614 1777
615 1777
615 1776
616 1776
616 1778
617 1778
617 1782
618 1782
618 1778
619 1778
619 1781
620 1781
620 1779
621 1779
622 1779
622 1780
623 1780
623 1778
624 1778
625 1778
625 1755
626 1755
626 1780
627 1780
627 1777
628 1777
628 1781
629 1781
629 1785
630 1785
630 1781
631 1781
631 1775
632 1775
632 1777
633 1777
633 1778
634 1778
635 1778
635 1780
636 1780
636 1775
637 1775
637 1780
638 1780
638 1784
639 1784
639 1780
640 1780
640 1777
641 1777
641 1778
642 1778
642 1777
643 1777
643 1782
644 1782
644 1777
645 1777
645 1778
646 1778
647 1778
647 1783
648 1783
648 1775
649 1775
649 1780
650 1780
650 1782
651 1782
651 1783
652 1783
652 1814
653 1814
653 1780
654 1780
654 1779
655 1779
655 1782
656 1782
656 1784
657 1784
657 1783
658 1783
658 1779
659 1779
659 1783
660 1783
660 1784
661 1784
661 1780
662 1780
662 1782
663 1782
663 1781
664 1781
664 1785
665 1785
665 1781
666 1781
666 1775
667 1775
667 1785
668 1785
668 1784
669 1784
670 1784
670 1786
671 1786
671 1785
672 1785
672 1786
673 1786
673 1784
674 1784
674 1769
675 1769
675 1779
676 1779
676 1780
677 1780
678 1780
678 1781
679 1781
679 1785
680 1785
680 1780
681 1780
681 1788
682 1788
682 1784
683 1784
683 1783
684 1783
684 1780
685 1780
686 1780
687 1780
687 1782
688 1782
688 1786
689 1786
689 1785
690 1785
690 1787
691 1787
691 1784
692 1784
692 1788
693 1788
693 1780
694 1780
694 1784
695 1784
695 1761
696 1761
696 1785
697 1785
697 1783
698 1783
698 1786
699 1786
699 1782
700 1782
700 1783
701 1783
701 1781
702 1781
702 1786
703 1786
703 1783
704 1783
704 1785
705 1785
705 1780
706 1780
706 1785
707 1785
707 1786
708 1786
708 1780
709 1780
709 1782
710 1782
710 1780
711 1780
711 1779
712 1779
712 1791
713 1791
713 1779
714 1779
714 1785
715 1785
715 1780
716 1780
717 1780
717 1778
718 1778
718 1774
719 1774
719 1782
720 1782
720 1781
721 1781
721 1779
722 1779
723 1779
723 1780
724 1780
724 1756
725 1756
725 1778
726 1778
726 1783
727 1783
727 1779
728 1779
728 1778
729 1778
730 1778
731 1778
732 1778
732 1782
733 1782
733 1779
734 1779
734 1778
735 1778
735 1779
736 1779
737 1779
737 1780
738 1780
738 1779
739 1779
740 1779
740 1780
741 1780
741 1778
742 1778
742 1781
743 1781
743 1780
744 1780
744 1781
745 1781
745 1769
746 1769
746 1778
747 1778
747 1779
748 1779
748 1780
749 1780
749 1779
750 1779
750 1757
751 1757
751 1776
752 1776
752 1777
753 1777
753 1779
754 1779
754 1777
755 1777
755 1768
756 1768
756 1780
757 1780
757 1778
758 1778
758 1773
759 1773
759 1780
760 1780
760 1781
761 1781
761 1779
762 1779
763 1779
763 1777
764 1777
764 1785
765 1785
765 1776
766 1776
766 1783
767 1783
767 1779
768 1779
768 1792
769 1792
769 1780
770 1780
770 1777
771 1777
771 1781
772 1781
772 1780
773 1780
773 1777
774 1777
774 1779
775 1779
775 1780
776 1780
776 1779
777 1779
777 1777
778 1777
778 1780
779 1780
779 1778
780 1778
780 1781
781 1781
781 1779
782 1779
783 1779
783 1778
784 1778
784 1779
785 1779
786 1779
786 1780
787 1780
787 1781
788 1781
788 1776
789 1776
789 1777
790 1777
790 1780
791 1780
791 1779
792 1779
793 1779
794 1779
794 1777
795 1777
795 1778
796 1778
797 1778
797 1815
798 1815
798 1777
799 1777
799 1780
800 1780
801 1780
801 1777
802 1777
802 1778
803 1778
803 1782
804 1782
804 1777
805 1777
805 1778
806 1778
806 1779
807 1779
807 1777
808 1777
808 1781
809 1781
809 1767
810 1767
810 1780
811 1780
812 1780
813 1780
813 1781
814 1781
814 1777
815 1777
815 1779
816 1779
816 1777
817 1777
817 1782
818 1782
818 1780
819 1780
819 1782
820 1782
820 1779
821 1779
821 1783
822 1783
822 1785
823 1785
823 1779
824 1779
824 1760
825 1760
825 1779
826 1779
826 1778
827 1778
827 1781
828 1781
828 1780
829 1780
830 1780
830 1779
831 1779
831 1782
832 1782
832 1783
833 1783
833 1784
834 1784
834 1779
835 1779
835 1780
836 1780
836 1782
837 1782
837 1778
838 1778
838 1782
839 1782
839 1784
840 1784
840 1777
841 1777
842 1777
842 1784
843 1784
843 1783
844 1783
844 1782
845 1782
845 1780
846 1780
846 1782
847 1782
847 1774
848 1774
848 1783
849 1783
849 1785
850 1785
850 1783
851 1783
851 1785
852 1785
852 1783
853 1783
853 1780
854 1780
854 1782
855 1782
855 1780
856 1780
856 1779
857 1779
858 1779
858 1781
859 1781
859 1777
860 1777
860 1782
861 1782
861 1780
862 1780
862 1786
863 1786
863 1781
864 1781
864 1785
865 1785
865 1787
866 1787
867 1787
867 1784
868 1784
869 1784
869 1788
870 1788
870 1783
871 1783
871 1788
872 1788
872 1775
873 1775
873 1788
874 1788
874 1793
875 1793
875 1798
876 1798
876 1789
877 1789
877 1782
878 1782
878 1790
879 1790
879 1835
880 1835
880 1782
881 1782
881 1776
882 1776
882 1785
883 1785
883 1783
884 1783
884 1780
885 1780
885 1784
886 1784
886 1787
887 1787
887 1785
888 1785
888 1783
889 1783
889 1781
890 1781
890 1783
891 1783
891 1781
892 1781
892 1786
893 1786
893 1783
894 1783
895 1783
895 1785
896 1785
896 1781
897 1781
897 1777
898 1777
898 1768
899 1768
899 1781
900 1781
900 1778
901 1778
901 1780
902 1780
903 1780
903 1781
904 1781
905 1781
906 1781
906 1783
907 1783
907 1780
908 1780
908 1792
909 1792
909 1779
910 1779
910 1789
911 1789
911 1778
912 1778
912 1780
913 1780
913 1778
914 1778
915 1778
915 1779
916 1779
916 1778
917 1778
918 1778
918 1780
919 1780
919 1779
920 1779
921 1779
921 1780
922 1780
923 1780
923 1781
924 1781
924 1777
925 1777
925 1763
926 1763
926 1779
927 1779
927 1776
928 1776
928 1778
929 1778
929 1776
930 1776
930 1778
931 1778
931 1780
932 1780
933 1780
934 1780
934 1776
935 1776
935 1781
936 1781
936 1780
937 1780
937 1832
938 1832
938 1782
939 1782
939 1778
940 1778
940 1777
941 1777
941 1780
942 1780
942 1776
943 1776
943 1780
944 1780
945 1780
945 1779
946 1779
946 1781
947 1781
947 1782
948 1782
948 1755
949 1755
949 1779
950 1779
950 1777
951 1777
951 1778
952 1778
952 1779
953 1779
953 1781
954 1781
954 1782
955 1782
956 1782
956 1779
957 1779
958 1779
958 1777
959 1777
959 1780
960 1780
960 1781
961 1781
961 1786
962 1786
962 1780
963 1780
963 1778
964 1778
964 1781
965 1781
965 1778
966 1778
966 1805
967 1805
967 1779
968 1779
968 1784
969 1784
969 1779
970 1779
970 1780
971 1780
971 1779
972 1779
973 1779
974 1779
974 1776
975 1776
975 1778
976 1778
976 1780
977 1780
978 1780
978 1795
979 1795
979 1775
980 1775
980 1778
981 1778
981 1779
982 1779
982 1763
983 1763
983 1788
984 1788
984 1779
985 1779
986 1779
986 1781
987 1781
987 1780
988 1780
988 1776
989 1776
989 1779
990 1779
990 1778
991 1778
991 1775
992 1775
992 1768
993 1768
993 1779
994 1779
994 1778
995 1778
995 1790
996 1790
996 1777
997 1777
998 1777
998 1780
999 1780
1000 1780
1000 1773
1001 1773
1001 1778
1002 1778
1002 1780
1003 1780
1003 1778
1004 1778
1005 1778
1006 1778
1006 1779
1007 1779
1008 1779
1008 1778
1009 1778
1009 1779
1010 1779
1010 1772
1011 1772
1011 1778
1012 1778
1012 1780
1013 1780
1013 1784
1014 1784
1014 1777
1015 1777
1015 1779
1016 1779
1016 1777
1017 1777
1017 1780
1018 1780
1018 1777
1019 1777
1019 1775
1020 1775
1020 1779
1021 1779
1021 1777
1022 1777
1022 1780
1023 1780
1023 1778
1024 1778
1024 1779
1025 1779
1025 1778
1026 1778
1026 1777
1027 1777
1028 1777
1029 1777
1029 1779
1030 1779
1030 1778
1031 1778
1031 1779
1032 1779
1032 1777
1033 1777
1033 1776
1034 1776
1034 1778
1035 1778
1035 1779
1036 1779
1036 1778
1037 1778
1037 1775
1038 1775
1038 1779
1039 1779
1039 1778
1040 1778
1040 1776
1041 1776
1041 1779
1042 1779
1042 1777
1043 1777
1043 1775
1044 1775
1044 1778
1045 1778
1046 1778
1046 1777
1047 1777
1047 1778
1048 1778
1048 1779
1049 1779
1049 1777
1050 1777
1050 1778
1051 1778
1051 1779
1052 1779
1052 1824
1053 1824
1053 1778
1054 1778
1054 1777
1055 1777
1056 1777
1056 1778
1057 1778
1057 1779
1058 1779
1058 1777
1059 1777
1059 1792
1060 1792
1060 1776
1061 1776
1061 1777
1062 1777
1062 1778
1063 1778
1063 1779
1064 1779
1064 1778
1065 1778
1065 1774
1066 1774
1066 1779
1067 1779
1068 1779
1068 1775
1069 1775
1069 1776
1070 1776
1071 1776
1071 1779
1072 1779
1072 1777
1073 1777
1073 1768
1074 1768
1074 1781
1075 1781
1075 1792
1076 1792
1076 1775
1077 1775
1077 1779
1078 1779
1078 1780
1079 1780
1079 1777
1080 1777
1080 1775
1081 1775
1082 1775
1082 1779
1083 1779
1083 1788
1084 1788
1084 1778
1085 1778
1085 1781
1086 1781
1086 1779
1087 1779
1087 1777
1088 1777
1088 1778
1089 1778
1089 1780
1090 1780
1090 1792
1091 1792
1091 1781
1092 1781
1092 1777
1093 1777
1093 1780
1094 1780
1095 1780
1095 1783
1096 1783
1096 1780
1097 1780
1097 1777
1098 1777
1098 1780
1099 1780
1099 1778
1100 1778
1100 1782
1101 1782
1101 1775
1102 1775
1102 1779
1103 1779
1103 1778
1104 1778
1104 1779
1105 1779
1105 1781
1106 1781
1106 1779
1107 1779
1107 1775
1108 1775
1108 1779
1109 1779
1109 1776
1110 1776
1110 1780
1111 1780
1111 1777
1112 1777
1112 1778
1113 1778
1113 1776
1114 1776
1114 1777
1115 1777
1115 1781
1116 1781
1116 1777
1117 1777
1117 1778
1118 1778
1118 1777
1119 1777
1119 1776
1120 1776
1120 1778
1121 1778
1121 1777
1122 1777
1122 1779
1123 1779
1123 1778
1124 1778
1124 1779
1125 1779
1125 1785
1126 1785
1126 1783
1127 1783
1127 1781
1128 1781
1128 1779
1129 1779
1129 1778
1130 1778
1130 1776
1131 1776
1131 1778
1132 1778
1132 1780
1133 1780
1133 1777
1134 1777
1135 1777
1135 1778
1136 1778
1136 1777
1137 1777
1138 1777
1139 1777
1139 1779
1140 1779
1140 1792
1141 1792
1141 1779
1142 1779
1143 1779
1143 1778
1144 1778
1144 1774
1145 1774
1145 1779
1146 1779
1147 1779
1147 1777
1148 1777
1148 1775
1149 1775
1150 1775
1150 1781
1151 1781
1151 1778
1152 1778
1152 1781
1153 1781
1153 1778
1154 1778
1154 1775
1155 1775
1155 1779
1156 1779
1156 1777
1157 1777
1157 1783
1158 1783
1158 1775
1159 1775
1159 1778
1160 1778
1160 1779
1161 1779
1162 1779
1162 1776
1163 1776
1163 1783
1164 1783
1164 1777
1165 1777
1165 1776
1166 1776
1166 1780
1167 1780
1167 1781
1168 1781
1168 1782
1169 1782
1169 1781
1170 1781
1170 1782
1171 1782
1171 1781
1172 1781
1172 1779
1173 1779
1173 1782
1174 1782
1174 1781
1175 1781
1176 1781
1177 1781
1177 1779
1178 1779
1178 1782
1179 1782
1179 1777
1180 1777
1180 1779
1181 1779
1182 1779
1182 1782
1183 1782
1183 1776
1184 1776
1184 1780
1185 1780
1185 1779
1186 1779
1187 1779
1188 1779
1188 1780
1189 1780
1189 1778
1190 1778
1190 1775
1191 1775
1191 1776
1192 1776
1192 1780
1193 1780
1193 1775
1194 1775
1194 1781
1195 1781
1195 1782
1196 1782
1196 1780
1197 1780
1197 1785
1198 1785
1198 1781
1199 1781
1199 1780
1200 1780
1201 1780
1201 1781
1202 1781
1202 1780
1203 1780
1203 1789
1204 1789
1204 1780
1205 1780
1205 1789
1206 1789
1206 1779
1207 1779
1208 1779
1208 1764
1209 1764
1209 1781
1210 1781
1210 1779
1211 1779
1211 1778
1212 1778
1212 1780
1213 1780
1213 1779
1214 1779
1214 1780
1215 1780
1216 1780
1217 1780
1217 1782
1218 1782
1218 1780
1219 1780
1220 1780
1220 1777
1221 1777
1222 1777
1222 1775
1223 1775
1223 1783
1224 1783
1224 1781
1225 1781
1226 1781
1226 1782
1227 1782
1227 1783
1228 1783
1228 1777
1229 1777
1229 1781
1230 1781
1230 1780
1231 1780
1231 1783
1232 1783
1232 1781
1233 1781
1233 1779
1234 1779
1234 1786
1235 1786
1235 1780
1236 1780
1237 1780
1237 1783
1238 1783
1238 1781
1239 1781
1239 1779
1240 1779
1241 1779
1241 1778
1242 1778
1242 1779
1243 1779
1243 1783
1244 1783
1244 1777
1245 1777
1245 1786
1246 1786
1246 1780
1247 1780
1248 1780
1248 1781
1249 1781
1249 1776
1250 1776
1250 1781
1251 1781
1251 1777
1252 1777
1252 1781
1253 1781
1254 1781
1255 1781
1256 1781
1256 1780
1257 1780
1257 1784
1258 1784
1258 1780
1259 1780
1259 1782
1260 1782
1260 1817
1261 1817
1261 1782
1262 1782
1262 1780
1263 1780
1263 1783
1264 1783
1264 1779
1265 1779
1265 1778
1266 1778
1266 1779
1267 1779
1267 1781
1268 1781
1269 1781
1269 1778
1270 1778
1270 1782
1271 1782
1271 1779
1272 1779
1272 1780
1273 1780
1274 1780
1274 1779
1275 1779
1275 1777
1276 1777
1276 1754
1277 1754
1277 1778
1278 1778
1278 1783
1279 1783
1279 1781
1280 1781
1280 1779
1281 1779
1281 1755
1282 1755
1282 1780
1283 1780
1283 1777
1284 1777
1284 1778
1285 1778
1285 1776
1286 1776
1286 1778
1287 1778
1287 1783
1288 1783
1288 1777
1289 1777
1290 1777
1290 1780
1291 1780
1292 1780
1292 1778
1293 1778
1293 1779
1294 1779
1294 1784
1295 1784
1295 1779
1296 1779
1297 1779
1297 1780
1298 1780
1299 1780
1299 1777
1300 1777
1300 1778
1301 1778
1301 1782
1302 1782
1302 1779
1303 1779
1303 1777
1304 1777
1304 1769
1305 1769
1305 1780
1306 1780
1306 1779
1307 1779
1307 1782
1308 1782
1308 1778
1309 1778
1309 1792
1310 1792
1310 1778
1311 1778
1311 1779
1312 1779
1312 1780
1313 1780
1313 1779
1314 1779
1314 1778
1315 1778
1315 1777
1316 1777
1316 1783
1317 1783
1317 1779
1318 1779
1318 1777
1319 1777
1319 1775
1320 1775
1320 1779
1321 1779
1321 1781
1322 1781
1322 1773
1323 1773
1323 1777
1324 1777
1324 1762
1325 1762
1325 1778
1326 1778
1326 1781
1327 1781
1327 1778
1328 1778
1328 1779
1329 1779
1329 1781
1330 1781
1330 1780
1331 1780
1332 1780
1332 1781
1333 1781
1333 1778
1334 1778
1334 1780
1335 1780
1335 1782
1336 1782
1336 1778
1337 1778
1337 1779
1338 1779
1338 1752
1339 1752
1339 1778
1340 1778
1340 1779
1341 1779
1341 1781
1342 1781
1342 1779
1343 1779
1343 1778
1344 1778
1344 1780
1345 1780
1345 1779
1346 1779
1346 1777
1347 1777
1347 1779
1348 1779
1348 1780
1349 1780
1349 1779
1350 1779
1351 1779
1351 1775
1352 1775
1352 1778
1353 1778
1353 1777
1354 1777
1354 1782
1355 1782
1355 1779
1356 1779
1356 1777
1357 1777
1358 1777
1359 1777
1360 1777
1360 1782
1361 1782
1361 1777
1362 1777
1362 1779
1363 1779
1363 1784
1364 1784
1364 1782
1365 1782
1365 1774
1366 1774
1366 1779
1367 1779
1368 1779
1368 1777
1369 1777
1370 1777
1371 1777
1371 1781
1372 1781
1372 1776
1373 1776
1373 1778
1374 1778
1374 1777
1375 1777
1375 1778
1376 1778
1377 1778
1378 1778
1378 1775
1379 1775
1379 1780
1380 1780
1380 1779
1381 1779
1381 1777
1382 1777
1382 1822
1383 1822
1383 1777
1384 1777
1384 1771
1385 1771
1385 1778
1386 1778
1386 1780
1387 1780
1387 1775
1388 1775
1388 1776
1389 1776
1389 1784
1390 1784
1390 1779
1391 1779
1391 1790
1392 1790
1392 1779
1393 1779
1393 1785
1394 1785
1394 1778
1395 1778
1395 1780
1396 1780
1396 1778
1397 1778
1397 1799
1398 1799
1398 1775
1399 1775
1399 1781
1400 1781
1400 1780
1401 1780
1402 1780
1402 1779
1403 1779
1403 1753
1404 1753
1404 1778
1405 1778
1406 1778
1406 1779
1407 1779
1407 1776
1408 1776
1409 1776
1409 1779
1410 1779
1410 1778
1411 1778
1411 1779
1412 1779
1413 1779
1413 1783
1414 1783
1414 1781
1415 1781
1415 1776
1416 1776
1416 1780
1417 1780
1417 1705
1418 1705
1418 1775
1419 1775
1419 1778
1420 1778
1420 1780
1421 1780
1421 1773
1422 1773
1422 1787
1423 1787
1423 1774
1424 1774
1424 1773
1425 1773
1425 1779
1426 1779
1427 1779
1427 1780
1428 1780
1428 1778
1429 1778
1430 1778
1430 1780
1431 1780
1431 1781
1432 1781
1432 1780
1433 1780
1433 1777
1434 1777
1434 1779
1435 1779
1435 1776
1436 1776
1436 1778
1437 1778
1437 1780
1438 1780
1438 1777
1439 1777
1440 1777
1440 1780
1441 1780
1441 1777
1442 1777
1442 1773
1443 1773
1443 1778
1444 1778
1445 1778
1445 1777
1446 1777
1447 1777
1447 1779
1448 1779
1448 1782
1449 1782
1449 1780
1450 1780
1450 1777
1451 1777
1451 1779
1452 1779
1452 1778
1453 1778
1453 1777
1454 1777
1454 1779
1455 1779
1455 1780
1456 1780
1456 1778
1457 1778
1457 1775
1458 1775
1458 1778
1459 1778
1459 1780
1460 1780
1460 1776
1461 1776
1461 1777
1462 1777
1462 1778
1463 1778
1463 1774
1464 1774
1464 1792
1465 1792
1465 1780
1466 1780
1466 1778
1467 1778
1467 1788
1468 1788
1468 1777
1469 1777
1470 1777
1470 1787
1471 1787
1471 1776
1472 1776
1473 1776
1473 1778
1474 1778
1475 1778
1475 1777
1476 1777
1476 1785
1477 1785
1477 1781
1478 1781
1478 1778
1479 1778
1480 1778
1481 1778
1481 1779
1482 1779
1482 1774
1483 1774
1483 1780
1484 1780
1484 1779
1485 1779
1486 1779
1486 1776
1487 1776
1487 1833
1488 1833
1488 1775
1489 1775
1489 1776
1490 1776
1490 1778
1491 1778
1491 1780
1492 1780
1492 1778
1493 1778
1493 1776
1494 1776
1494 1778
1495 1778
1495 1774
1496 1774
1496 1778
1497 1778
1497 1777
1498 1777
1498 1780
1499 1780
1499 1779
1500 1779
1500 1783
1501 1783
1501 1756
1502 1756
1502 1778
1503 1778
1503 1780
1504 1780
1504 1782
1505 1782
1505 1777
1506 1777
1506 1778
1507 1778
1508 1778
1508 1783
1509 1783
1509 1777
1510 1777
1510 1778
1511 1778
1511 1780
1512 1780
1512 1782
1513 1782
1513 1780
1514 1780
1514 1775
1515 1775
1515 1779
1516 1779
1516 1778
1517 1778
1517 1784
1518 1784
1518 1783
1519 1783
1519 1779
1520 1779
1520 1777
1521 1777
1521 1785
1522 1785
1522 1777
1523 1777
1523 1778
1524 1778
1524 1777
1525 1777
1525 1780
1526 1780
1526 1778
1527 1778
1527 1781
1528 1781
1528 1779
1529 1779
1529 1778
1530 1778
1530 1780
1531 1780
1531 1778
1532 1778
1532 1782
1533 1782
1533 1779
1534 1779
1535 1779
1535 1777
1536 1777
1537 1777
1537 1773
1538 1773
1538 1780
1539 1780
1539 1779
1540 1779
1541 1779
1541 1780
1542 1780
1542 1777
1543 1777
1543 1778
1544 1778
1545 1778
1546 1778
1546 1781
1547 1781
1548 1781
1548 1780
1549 1780
1549 1784
1550 1784
1550 1781
1551 1781
1551 1777
1552 1777
1552 1770
1553 1770
1553 1780
1554 1780
1554 1778
1555 1778
1555 1780
1556 1780
1556 1774
1557 1774
1557 1779
1558 1779
1558 1782
1559 1782
1559 1780
1560 1780
1560 1779
1561 1779
1561 1781
1562 1781
1563 1781
1563 1783
1564 1783
1564 1780
1565 1780
1565 1781
1566 1781
1566 1780
1567 1780
1567 1784
1568 1784
1568 1782
1569 1782
1569 1779
1570 1779
1570 1778
1571 1778
1571 1779
1572 1779
1573 1779
1574 1779
1574 1778
1575 1778
1575 1764
1576 1764
1576 1780
1577 1780
1577 1779
1578 1779
1578 1784
1579 1784
1579 1780
1580 1780
1580 1777
1581 1777
1581 1779
1582 1779
1582 1783
1583 1783
1583 1772
1584 1772
1584 1779
1585 1779
1585 1803
1586 1803
1586 1779
1587 1779
1588 1779
1588 1777
1589 1777
1589 1783
1590 1783
1590 1778
1591 1778
1591 1782
1592 1782
1593 1782
1593 1780
1594 1780
1594 1778
1595 1778
1595 1779
1596 1779
1596 1825
1597 1825
1597 1777
1598 1777
1598 1778
1599 1778
1599 1780
1600 1780
1600 1781
1601 1781
1601 1785
0 1785
0 1785
